{
   "root": {
      "dev": "./dev",
      "dist": "./dist"
   },
   "html": {
      "dev": "html",
      "dist": "./",
      "parts": "templates"
   },
   "css": {
      "dev": "sass",
      "dist": "assets/css",
      "parts": "parts",
      "extensions": "*.+(css|scss|sass)",
      "uncss": false
   },
   "js": {
      "dev": "js",
      "dist": "assets/js",
      "parts": "modules",
      "extensions": [".json", ".js"]
   },
   "img": {
      "dev": "img",
      "dist": "assets/img",
      "extensions": "*.+(jpg|jpeg|gif|png|svg)"
   },
   "svg": {
      "dev": "img/svg",
      "dist": "assets/img"
   },
   "static": {
      "dev": "static",
      "dist": "assets/static"
   }
}
